…
# Convert dates from string to date-time
approval_polllist %>%
  select(modeldate, startdate, enddate, createddate, timestamp)%>%
  mutate(poll_date = mdy(createddate), modeldate_as_date = mdy(modeldate), start = mdy(startdate), end = mdy(enddate))

## # A tibble: 1,945 x 9
##    modeldate  startdate enddate   createddate timestamp poll_date  modeldate_as_da~
##    <chr>      <chr>     <chr>     <chr>       <chr>     <date>     <date>          
##  1 10/20/2021 1/19/2021 1/21/2021 1/28/2021   16:59:11~ 2021-01-28 2021-10-20      
##  2 10/20/2021 1/19/2021 1/21/2021 1/22/2021   16:59:11~ 2021-01-22 2021-10-20      
##  3 10/20/2021 1/20/2021 1/21/2021 1/22/2021   16:59:11~ 2021-01-22 2021-10-20      
##  4 10/20/2021 1/20/2021 1/22/2021 1/28/2021   16:59:11~ 2021-01-28 2021-10-20      
##  5 10/20/2021 1/20/2021 1/21/2021 1/22/2021   16:59:11~ 2021-01-22 2021-10-20      
##  6 10/20/2021 1/20/2021 1/21/2021 2/2/2021    16:59:11~ 2021-02-02 2021-10-20      
##  7 10/20/2021 1/21/2021 1/23/2021 1/28/2021   16:59:11~ 2021-01-28 2021-10-20      
##  8 10/20/2021 1/21/2021 1/23/2021 1/28/2021   16:59:11~ 2021-01-28 2021-10-20      
##  9 10/20/2021 1/20/2021 1/24/2021 1/25/2021   16:59:11~ 2021-01-25 2021-10-20      
## 10 10/20/2021 1/21/2021 1/22/2021 1/25/2021   16:59:11~ 2021-01-25 2021-10-20      
## # ... with 1,935 more rows, and 2 more variables: start <date>, end <date>

#Cannot convert timestamp directly into date-time because of formatting, split into two vectors, reverse order, re-concatenate, convert to date-time
s1 <- stringr::str_split_fixed(approval_polllist$timestamp, " ", n=2)[,1]
s2 <- stringr::str_split_fixed(approval_polllist$timestamp, " ",n=2)[,2]
times <- dmy_hms(paste(s2, s1, sep = "T"))

glimpse(times)

##  POSIXct[1:1945], format: "2021-10-20 16:59:11" "2021-10-20 16:59:11" "2021-10-20 16:59:11" ...

approval_polllist %>%
  add_column(times)

## # A tibble: 1,945 x 23
##    president   subgroup modeldate startdate enddate pollster    grade samplesize
##    <chr>       <chr>    <chr>     <chr>     <chr>   <chr>       <chr>      <dbl>
##  1 Joseph R. ~ All pol~ 10/20/20~ 1/19/2021 1/21/2~ Morning Co~ B          15000
##  2 Joseph R. ~ All pol~ 10/20/20~ 1/19/2021 1/21/2~ Rasmussen ~ B           1500
##  3 Joseph R. ~ All pol~ 10/20/20~ 1/20/2021 1/21/2~ Morning Co~ B           1993
##  4 Joseph R. ~ All pol~ 10/20/20~ 1/20/2021 1/22/2~ Morning Co~ B          15000
##  5 Joseph R. ~ All pol~ 10/20/20~ 1/20/2021 1/21/2~ Ipsos       B-          1115
##  6 Joseph R. ~ All pol~ 10/20/20~ 1/20/2021 1/21/2~ YouGov      B+          1516
##  7 Joseph R. ~ All pol~ 10/20/20~ 1/21/2021 1/23/2~ Morning Co~ B          15000
##  8 Joseph R. ~ All pol~ 10/20/20~ 1/21/2021 1/23/2~ RMG Resear~ B-          1200
##  9 Joseph R. ~ All pol~ 10/20/20~ 1/20/2021 1/24/2~ Rasmussen ~ B           1500
## 10 Joseph R. ~ All pol~ 10/20/20~ 1/21/2021 1/22/2~ HarrisX     B+           941
## # ... with 1,935 more rows, and 15 more variables: population <chr>,
## #   weight <dbl>, influence <dbl>, approve <dbl>, disapprove <dbl>,
## #   adjusted_approve <dbl>, adjusted_disapprove <dbl>, multiversions <chr>,
## #   tracking <lgl>, url <chr>, poll_id <dbl>, question_id <dbl>,
## #   createddate <chr>, timestamp <chr>, times <dttm>
…
